AluWithoutGattedClockSystem.sim/sim_1/behav/xsim/ALU_System_tb.vcd
$date
   Thu Apr  3 13:02:54 2025
$end

$version
  2024.1
  $dumpfile ("ALU_System_tb.vcd") 
$end

$timescale
  1ps
$end

$scope module ALU_System_tb $end
$var reg 4 ! A [3:0] $end
$var reg 4 " B [3:0] $end
$var reg 3 # opcode [2:0] $end
$var reg 1 $ clk $end
$var reg 1 % reset $end
$var wire 1 & clk_out $end
$var wire 4 ' d_out [3:0] $end
$scope module uut $end
$var wire 4 ( A [3:0] $end
$var wire 4 ) B [3:0] $end
$var wire 3 * opcode [2:0] $end
$var wire 1 + clk $end
$var wire 1 , reset $end
$var reg 1 - clk_out $end
$var reg 4 . d_out [3:0] $end
$var reg 32 / counter [31:0] $end
$var reg 4 0 alu_out [3:0] $end
$upscope $end
$upscope $end
$enddefinitions $end

#0
$dumpvars
b0 !
b0 "
b0 #
0$
1%
x&
bx '
b0 (
b0 )
b0 *
0+
1,
x-
bx .
b0 /
b0 0
$end

#5000
1$
1+
b1 /

#10000
0$
0+

#15000
1$
1+
b10 /

#20000
0$
0%
b0 '
0+
0,
b0 .

#25000
1$
1+
b11 /

#30000
0$
0+

#35000
1$
1+
b100 /

#40000
0$
1%
0+
1,

#45000
1$
1+
b101 /

#50000
0$
0+

#55000
1$
1+
b110 /

#60000
b100 !
b11 "
0$
b100 (
b11 )
0+
b111 0

#65000
1$
1+
b111 /

#70000
0$
0+

#75000
1$
1+
b1000 /

#80000
0$
0+

#85000
1$
1+
b1001 /

#90000
0$
0+

#95000
1$
1+
b0 /

#100000
0$
0+

#105000
1$
1+
b1 /

#110000
0$
0+

#115000
1$
1+
b10 /

#120000
0$
0+

#125000
1$
1+
b11 /

#130000
0$
0+

#135000
1$
1+
b100 /

#140000
0$
0+

#145000
1$
1+
b101 /

#150000
0$
0+

#155000
1$
1+
b110 /

#160000
0$
0+

#165000
1$
1+
b111 /

#170000
0$
0+

#175000
1$
1+
b1000 /

#180000
0$
0+

#185000
1$
1+
b1001 /

#190000
0$
0+

#195000
1$
1+
b0 /

#200000
0$
0+

#205000
1$
1+
b1 /

#210000
0$
0+

#215000
1$
1+
b10 /

#220000
0$
0+

#225000
1$
1+
b11 /

#230000
0$
0+

#235000
1$
1+
b100 /

#240000
0$
0+

#245000
1$
1+
b101 /

#250000
0$
0+

#255000
1$
1+
b110 /

#260000
b1000 !
b1 #
0$
b1000 (
b1 *
0+
b101 0

#265000
1$
1+
b111 /

#270000
0$
0+

#275000
1$
1+
b1000 /

#280000
0$
0+

#285000
1$
1+
b1001 /

#290000
0$
0+

#295000
1$
1+
b0 /

#300000
0$
0+

#305000
1$
1+
b1 /

#310000
0$
0+

#315000
1$
1+
b10 /

#320000
0$
0+

#325000
1$
1+
b11 /

#330000
0$
0+

#335000
1$
1+
b100 /

#340000
0$
0+

#345000
1$
1+
b101 /

#350000
0$
0+

#355000
1$
1+
b110 /

#360000
0$
0+

#365000
1$
1+
b111 /

#370000
0$
0+

#375000
1$
1+
b1000 /

#380000
0$
0+

#385000
1$
1+
b1001 /

#390000
0$
0+

#395000
1$
1+
b0 /

#400000
0$
0+

#405000
1$
1+
b1 /

#410000
0$
0+

#415000
1$
1+
b10 /

#420000
0$
0+

#425000
1$
1+
b11 /

#430000
0$
0+

#435000
1$
1+
b100 /

#440000
0$
0+

#445000
1$
1+
b101 /

#450000
0$
0+

#455000
1$
1+
b110 /

#460000
b101 !
b10 #
0$
b101 (
b10 *
0+
b1 0

#465000
1$
1+
b111 /

#470000
0$
0+

#475000
1$
1+
b1000 /

#480000
0$
0+

#485000
1$
1+
b1001 /

#490000
0$
0+

#495000
1$
1+
b0 /

#500000
0$
0+

#505000
1$
1+
b1 /

#510000
0$
0+

#515000
1$
1+
b10 /

#520000
0$
0+

#525000
1$
1+
b11 /

#530000
0$
0+

#535000
1$
1+
b100 /

#540000
0$
0+

#545000
1$
1+
b101 /

#550000
0$
0+

#555000
1$
1+
b110 /

#560000
0$
0+

#565000
1$
1+
b111 /

#570000
0$
0+

#575000
1$
1+
b1000 /

#580000
0$
0+

#585000
1$
1+
b1001 /

#590000
0$
0+

#595000
1$
1+
b0 /

#600000
0$
0+

#605000
1$
1+
b1 /

#610000
0$
0+

#615000
1$
1+
b10 /

#620000
0$
0+

#625000
1$
1+
b11 /

#630000
0$
0+

#635000
1$
1+
b100 /

#640000
0$
0+

#645000
1$
1+
b101 /

#650000
0$
0+

#655000
1$
1+
b110 /

#660000
b11 #
0$
b11 *
0+
b111 0

#665000
1$
1+
b111 /

#670000
0$
0+

#675000
1$
1+
b1000 /

#680000
0$
0+

#685000
1$
1+
b1001 /

#690000
0$
0+

#695000
1$
1+
b0 /

#700000
0$
0+

#705000
1$
1+
b1 /

#710000
0$
0+

#715000
1$
1+
b10 /

#720000
0$
0+

#725000
1$
1+
b11 /

#730000
0$
0+

#735000
1$
1+
b100 /

#740000
0$
0+

#745000
1$
1+
b101 /

#750000
0$
0+

#755000
1$
1+
b110 /

#760000
0$
0+

#765000
1$
1+
b111 /

#770000
0$
0+

#775000
1$
1+
b1000 /

#780000
0$
0+

#785000
1$
1+
b1001 /

#790000
0$
0+

#795000
1$
1+
b0 /

#800000
0$
0+

#805000
1$
1+
b1 /

#810000
0$
0+

#815000
1$
1+
b10 /

#820000
0$
0+

#825000
1$
1+
b11 /

#830000
0$
0+

#835000
1$
1+
b100 /

#840000
0$
0+

#845000
1$
1+
b101 /

#850000
0$
0+

#855000
1$
1+
b110 /

#860000
b100 #
0$
b100 *
0+
b110 0

#865000
1$
1+
b111 /

#870000
0$
0+

#875000
1$
1+
b1000 /

#880000
0$
0+

#885000
1$
1+
b1001 /

#890000
0$
0+

#895000
1$
1+
b0 /

#900000
0$
0+

#905000
1$
1+
b1 /

#910000
0$
0+

#915000
1$
1+
b10 /

#920000
0$
0+

#925000
1$
1+
b11 /

#930000
0$
0+

#935000
1$
1+
b100 /

#940000
0$
0+

#945000
1$
1+
b101 /

#950000
0$
0+

#955000
1$
1+
b110 /

#960000
0$
0+

#965000
1$
1+
b111 /

#970000
0$
0+

#975000
1$
1+
b1000 /

#980000
0$
0+

#985000
1$
1+
b1001 /

#990000
0$
0+

#995000
1$
1+
b0 /

